@startuml linkLayer3
skinparam BackgroundColor #1E1E1E
skinparam sequence {
	LifeLineBorderColor #569CD6
}
skinparam ParticipantBackgroundColor #3D3D3D
skinparam ParticipantFontColor #FCAF3E
skinparam ParticipantAttributeFontColor #398EE9
skinparam ParticipantBorderColor #569CD6
skinparam ParticipantBorderThickness 2
skinparam ArrowColor #569CD6

skinparam ArrowFontColor #FCAF3E
skinparam ActivityDiamondBackgroundColor #3D3D3D
skinparam ActivityDiamondBorderColor #569CD6

RightUart -> LeftUart : Send message
RightUart <-- LeftUart : Send message confirmation

RightUart -> RightUart : Goes offline

RightUart <- LeftUart : Send message
LeftUart -> LeftUart : wait some time

LeftUart -> LeftUart : discard message

RightUart -> RightUart : Goes online

RightUart -> LeftUart : Send message
RightUart <-- LeftUart : Send message confirmation
|||
RightUart <- LeftUart : Send message
RightUart --> LeftUart : Send message confirmation

@enduml
